<svg width="59" height="59" xmlns="http://www.w3.org/2000/svg" xmlns:svg="http://www.w3.org/2000/svg">
 <g>
  <title>Layer 1</title>
  <g stroke="null" id="svg_11">
   <circle id="svg_1" r="29.5" cy="29.5" cx="29.5" fill="#0068B6" opacity="0.1"/>
   <circle stroke="null" id="svg_2" r="23.35417" cy="29.5" cx="29.5" fill="#0068B6" opacity="0.2"/>
   <circle stroke="null" id="svg_3" r="18.19167" cy="29.5" cx="29.5" fill="#0068B6" opacity="0.3"/>
   <g stroke="null" id="svg_4">
    <circle stroke="null" id="svg_5" r="13.275" cy="29.5" cx="29.5" fill="#0068B6"/>
    <g stroke="null" id="svg_6">
     <path stroke="null" id="svg_7" d="m29.84417,23.10833c3.04833,0.04917 5.94917,1.22917 8.4075,3.54c0.09834,0.09833 0.09834,0.09833 0,0.24583c-0.49166,0.49167 -0.93417,0.93417 -1.42583,1.42583c-0.04917,0.04917 -0.09834,0.04917 -0.19667,0c-1.3275,-1.27833 -2.90083,-2.2125 -4.72,-2.60583c-3.63833,-0.78666 -6.83417,0.04917 -9.53833,2.55667c-0.1475,0.1475 -0.1475,0.1475 -0.295,0c-0.4425,-0.4425 -0.93417,-0.93417 -1.37667,-1.37667c-0.04917,-0.04917 -0.04917,-0.09833 0,-0.1475c1.81917,-1.77 3.9825,-2.90084 6.49,-3.3925c0.78667,-0.19667 1.52417,-0.24583 2.655,-0.24583z" fill="#FFFFFF"/>
     <path stroke="null" id="svg_8" d="m29.3525,28.81167c-1.67167,0.04917 -3.29417,0.63917 -4.62167,1.9175c-0.04917,0.04916 -0.09833,0.04916 -0.1475,0c-0.49167,-0.49166 -0.98333,-0.98333 -1.475,-1.475c-0.04917,-0.04917 -0.04917,-0.09833 0,-0.1475c1.13083,-1.08167 2.45833,-1.86833 4.03167,-2.26167c2.90083,-0.7375 5.50667,-0.19666 7.91583,1.57333c0.295,0.19667 0.54083,0.4425 0.83583,0.68833c0.04917,0.04917 0.04917,0.09834 0,0.1475c-0.49166,0.49167 -0.98333,0.98334 -1.475,1.475c-0.04917,0.04916 -0.09833,0.04916 -0.1475,0c-1.0325,-1.0325 -2.31083,-1.6225 -3.73667,-1.86833c-0.34416,-0.04917 -0.68833,-0.04917 -1.18,-0.04917z" fill="#FFFFFF"/>
     <path stroke="null" id="svg_9" d="m27.23833,35.64583c0,-1.27833 1.0325,-2.26167 2.31083,-2.26167c1.27834,0 2.26167,1.0325 2.26167,2.26167c0,1.27834 -1.0325,2.26167 -2.31083,2.26167c-1.27833,0 -2.26167,-1.0325 -2.26167,-2.26167z" fill="#FFFFFF"/>
     <path stroke="null" id="svg_10" d="m29.5,29.9425c1.52417,0.04917 2.85167,0.54083 3.93333,1.57333c0.09833,0.04917 0.04916,0.09834 0,0.19667c-0.49167,0.49167 -0.98333,0.98334 -1.475,1.42584c-0.04917,0.04916 -0.09834,0.04916 -0.1475,0c-1.3275,-1.22917 -3.34333,-1.22917 -4.67083,0c-0.04917,0.04916 -0.09833,0.04916 -0.1475,0c-0.49166,-0.49167 -0.98333,-0.98333 -1.475,-1.475c-0.04917,-0.04916 -0.04917,-0.09834 0,-0.1475c0.93416,-0.885 2.065,-1.42583 3.34333,-1.57333c0.24583,0 0.4425,0 0.63917,0z" fill="#FFFFFF"/>
    </g>
   </g>
  </g>
 </g>
</svg>