<?xml version="1.0" encoding="utf-8"?>
<!-- Generator: Adobe Illustrator 18.0.0, SVG Export Plug-In . SVG Version: 6.00 Build 0)  -->
<!DOCTYPE svg PUBLIC "-//W3C//DTD SVG 1.1//EN" "http://www.w3.org/Graphics/SVG/1.1/DTD/svg11.dtd">
<svg version="1.1" id="圖層_1" xmlns="http://www.w3.org/2000/svg" xmlns:xlink="http://www.w3.org/1999/xlink" x="0px" y="0px"
	 viewBox="0 0 56 56" enable-background="new 0 0 56 56" xml:space="preserve">
<circle opacity="0.1" fill="#ED1C24" cx="28" cy="28" r="28"/>
<circle opacity="0.2" fill="#ED1C24" cx="28" cy="28" r="22.2"/>
<circle opacity="0.3" fill="#ED1C24" cx="28" cy="28" r="17.3"/>
<g>
	<circle fill="#ED1C24" cx="28" cy="28" r="12.6"/>
</g>
</svg>
