<?xml version="1.0" encoding="utf-8"?>
<!-- Generator: Adobe Illustrator 18.0.0, SVG Export Plug-In . SVG Version: 6.00 Build 0)  -->
<!DOCTYPE svg PUBLIC "-//W3C//DTD SVG 1.1//EN" "http://www.w3.org/Graphics/SVG/1.1/DTD/svg11.dtd">
<svg version="1.1" id="圖層_1" xmlns="http://www.w3.org/2000/svg" xmlns:xlink="http://www.w3.org/1999/xlink" x="0px" y="0px"
	 viewBox="0 0 78 78" enable-background="new 0 0 78 78" xml:space="preserve">
<circle opacity="0.1" fill="#8CC63F" cx="39" cy="39" r="39"/>
<circle opacity="0.2" fill="#8CC63F" cx="39" cy="39" r="30.9"/>
<circle opacity="0.3" fill="#8CC63F" cx="39" cy="39" r="24"/>
<g>
	<circle fill="#8CC63F" cx="39" cy="39" r="17.5"/>
</g>
</svg>
